0.000000000000000000e+00,0.000000000000000000e+00,0.000000000000000000e+00,0.000000000000000000e+00,0.000000000000000000e+00,0.000000000000000000e+00,0.000000000000000000e+00,0.000000000000000000e+00,0.000000000000000000e+00,0.000000000000000000e+00,2.816143847495405250e+00,9.673709377657820907e-01,0.000000000000000000e+00,0.000000000000000000e+00,5.832956433646970147e-03,0.000000000000000000e+00,0.000000000000000000e+00,4.594998776238289895e-01,0.000000000000000000e+00
0.000000000000000000e+00,4.310356926948549550e+00,0.000000000000000000e+00,0.000000000000000000e+00,0.000000000000000000e+00,0.000000000000000000e+00,0.000000000000000000e+00,0.000000000000000000e+00,0.000000000000000000e+00,0.000000000000000000e+00,2.422852287507517133e+00,0.000000000000000000e+00,0.000000000000000000e+00,0.000000000000000000e+00,0.000000000000000000e+00,0.000000000000000000e+00,0.000000000000000000e+00,0.000000000000000000e+00,0.000000000000000000e+00
0.000000000000000000e+00,0.000000000000000000e+00,2.340480841252184518e+01,0.000000000000000000e+00,0.000000000000000000e+00,0.000000000000000000e+00,0.000000000000000000e+00,0.000000000000000000e+00,6.812092399492680750e-03,0.000000000000000000e+00,1.288653258423058334e+00,0.000000000000000000e+00,0.000000000000000000e+00,4.768053244358924116e-03,0.000000000000000000e+00,0.000000000000000000e+00,0.000000000000000000e+00,7.543416089394557877e-01,0.000000000000000000e+00
1.010147907523394339e+00,0.000000000000000000e+00,0.000000000000000000e+00,0.000000000000000000e+00,0.000000000000000000e+00,0.000000000000000000e+00,0.000000000000000000e+00,0.000000000000000000e+00,0.000000000000000000e+00,3.729764058920591197e+01,0.000000000000000000e+00,0.000000000000000000e+00,1.727841726605461536e+00,0.000000000000000000e+00,0.000000000000000000e+00,0.000000000000000000e+00,0.000000000000000000e+00,0.000000000000000000e+00,0.000000000000000000e+00
8.308679369465005848e+00,0.000000000000000000e+00,0.000000000000000000e+00,0.000000000000000000e+00,0.000000000000000000e+00,0.000000000000000000e+00,0.000000000000000000e+00,0.000000000000000000e+00,0.000000000000000000e+00,0.000000000000000000e+00,0.000000000000000000e+00,0.000000000000000000e+00,1.453022331682459756e+00,1.438173008707531864e+01,0.000000000000000000e+00,0.000000000000000000e+00,0.000000000000000000e+00,0.000000000000000000e+00,0.000000000000000000e+00
2.015156052303272549e+00,0.000000000000000000e+00,0.000000000000000000e+00,0.000000000000000000e+00,0.000000000000000000e+00,3.064247524201561546e-01,9.980548920191001372e+00,0.000000000000000000e+00,0.000000000000000000e+00,0.000000000000000000e+00,0.000000000000000000e+00,0.000000000000000000e+00,0.000000000000000000e+00,0.000000000000000000e+00,0.000000000000000000e+00,0.000000000000000000e+00,0.000000000000000000e+00,0.000000000000000000e+00,0.000000000000000000e+00
2.840055756780714535e+00,4.219600701590862712e+01,0.000000000000000000e+00,6.247654329059803224e+00,1.237672473826273156e-01,1.789705837499777186e+00,0.000000000000000000e+00,4.266998599081468946e+00,0.000000000000000000e+00,0.000000000000000000e+00,0.000000000000000000e+00,0.000000000000000000e+00,0.000000000000000000e+00,0.000000000000000000e+00,0.000000000000000000e+00,0.000000000000000000e+00,6.254752278296454193e+00,3.168296835710017589e+01,4.366850712284363056e-01
1.807072864292136094e+00,0.000000000000000000e+00,0.000000000000000000e+00,5.199156425179745611e+01,0.000000000000000000e+00,0.000000000000000000e+00,0.000000000000000000e+00,0.000000000000000000e+00,8.709452030358949548e-01,0.000000000000000000e+00,0.000000000000000000e+00,0.000000000000000000e+00,0.000000000000000000e+00,0.000000000000000000e+00,0.000000000000000000e+00,6.916624387791737050e+00,0.000000000000000000e+00,0.000000000000000000e+00,0.000000000000000000e+00
5.002958890383573110e-01,0.000000000000000000e+00,0.000000000000000000e+00,0.000000000000000000e+00,0.000000000000000000e+00,1.449417925979482646e+01,0.000000000000000000e+00,0.000000000000000000e+00,0.000000000000000000e+00,0.000000000000000000e+00,0.000000000000000000e+00,0.000000000000000000e+00,0.000000000000000000e+00,0.000000000000000000e+00,5.448635258270548461e-03,0.000000000000000000e+00,0.000000000000000000e+00,0.000000000000000000e+00,0.000000000000000000e+00
1.618447553088754542e+00,0.000000000000000000e+00,0.000000000000000000e+00,0.000000000000000000e+00,0.000000000000000000e+00,0.000000000000000000e+00,0.000000000000000000e+00,0.000000000000000000e+00,0.000000000000000000e+00,1.344880999186865100e+00,6.051806413566184872e+00,0.000000000000000000e+00,0.000000000000000000e+00,0.000000000000000000e+00,0.000000000000000000e+00,2.360180703841271654e+00,0.000000000000000000e+00,0.000000000000000000e+00,1.574721811491061629e+01
4.053639391189862096e+01,0.000000000000000000e+00,0.000000000000000000e+00,0.000000000000000000e+00,0.000000000000000000e+00,0.000000000000000000e+00,0.000000000000000000e+00,0.000000000000000000e+00,0.000000000000000000e+00,0.000000000000000000e+00,0.000000000000000000e+00,0.000000000000000000e+00,0.000000000000000000e+00,0.000000000000000000e+00,0.000000000000000000e+00,0.000000000000000000e+00,0.000000000000000000e+00,0.000000000000000000e+00,0.000000000000000000e+00
0.000000000000000000e+00,1.385263937626371566e+00,0.000000000000000000e+00,0.000000000000000000e+00,0.000000000000000000e+00,0.000000000000000000e+00,0.000000000000000000e+00,0.000000000000000000e+00,0.000000000000000000e+00,3.406636523214491563e-02,0.000000000000000000e+00,0.000000000000000000e+00,0.000000000000000000e+00,0.000000000000000000e+00,0.000000000000000000e+00,7.384091174260687751e+01,0.000000000000000000e+00,0.000000000000000000e+00,0.000000000000000000e+00
0.000000000000000000e+00,5.077107315001646581e-01,1.643539184795601571e+01,3.293143059252971461e-01,5.217892199301881438e-04,5.649582432895642325e-01,0.000000000000000000e+00,7.259501233157715783e-01,0.000000000000000000e+00,0.000000000000000000e+00,0.000000000000000000e+00,5.261216600246301223e-01,0.000000000000000000e+00,0.000000000000000000e+00,0.000000000000000000e+00,0.000000000000000000e+00,2.048822719786026758e-01,0.000000000000000000e+00,1.238396914778634728e-02
0.000000000000000000e+00,0.000000000000000000e+00,0.000000000000000000e+00,0.000000000000000000e+00,0.000000000000000000e+00,0.000000000000000000e+00,0.000000000000000000e+00,1.121621168332310958e+01,2.938629592858750805e-01,6.046121816977927804e-02,0.000000000000000000e+00,0.000000000000000000e+00,0.000000000000000000e+00,0.000000000000000000e+00,0.000000000000000000e+00,0.000000000000000000e+00,0.000000000000000000e+00,0.000000000000000000e+00,0.000000000000000000e+00
0.000000000000000000e+00,3.162136723422564355e+00,0.000000000000000000e+00,0.000000000000000000e+00,0.000000000000000000e+00,0.000000000000000000e+00,7.770277779176370636e+00,0.000000000000000000e+00,0.000000000000000000e+00,8.962736861028080426e+00,0.000000000000000000e+00,1.102817913529474225e+00,5.565889640798085480e+01,0.000000000000000000e+00,0.000000000000000000e+00,0.000000000000000000e+00,0.000000000000000000e+00,0.000000000000000000e+00,0.000000000000000000e+00
0.000000000000000000e+00,0.000000000000000000e+00,0.000000000000000000e+00,0.000000000000000000e+00,0.000000000000000000e+00,0.000000000000000000e+00,3.655719330529972666e+00,0.000000000000000000e+00,5.048327048606150447e-01,3.219365637525089530e-01,1.473705059502188108e+00,0.000000000000000000e+00,0.000000000000000000e+00,0.000000000000000000e+00,0.000000000000000000e+00,0.000000000000000000e+00,1.838158072706380608e+01,0.000000000000000000e+00,0.000000000000000000e+00
0.000000000000000000e+00,3.804695875270286631e+00,0.000000000000000000e+00,0.000000000000000000e+00,1.203249982077867486e+01,0.000000000000000000e+00,4.462844464180367177e-01,0.000000000000000000e+00,2.261479602828499191e-01,7.088390148226610954e-01,0.000000000000000000e+00,0.000000000000000000e+00,0.000000000000000000e+00,0.000000000000000000e+00,0.000000000000000000e+00,0.000000000000000000e+00,0.000000000000000000e+00,1.725103903914464720e-01,0.000000000000000000e+00
0.000000000000000000e+00,0.000000000000000000e+00,0.000000000000000000e+00,0.000000000000000000e+00,0.000000000000000000e+00,0.000000000000000000e+00,1.030524445841014651e-02,0.000000000000000000e+00,0.000000000000000000e+00,0.000000000000000000e+00,8.889859844476224282e+01,0.000000000000000000e+00,1.404693999367831836e+01,0.000000000000000000e+00,1.203438364690498363e-02,0.000000000000000000e+00,0.000000000000000000e+00,2.224454635883207132e+00,0.000000000000000000e+00
0.000000000000000000e+00,1.930857745412450477e+00,0.000000000000000000e+00,0.000000000000000000e+00,0.000000000000000000e+00,0.000000000000000000e+00,6.266523378126230386e-03,0.000000000000000000e+00,0.000000000000000000e+00,0.000000000000000000e+00,0.000000000000000000e+00,0.000000000000000000e+00,0.000000000000000000e+00,0.000000000000000000e+00,1.670806548346027753e+01,0.000000000000000000e+00,0.000000000000000000e+00,0.000000000000000000e+00,0.000000000000000000e+00
