%!PS-Adobe-3.0 EPSF-3.0
%%Title: plot_files/Iterations-train.eps
%%Creator: matplotlib version 3.1.1, http://matplotlib.org/
%%CreationDate: Fri Jan  1 21:08:10 2021
%%Orientation: portrait
%%BoundingBox: 75.6 223.20000000000002 536.4 568.8
%%EndComments
%%BeginProlog
/mpldict 8 dict def
mpldict begin
/m { moveto } bind def
/l { lineto } bind def
/r { rlineto } bind def
/c { curveto } bind def
/cl { closepath } bind def
/box {
m
1 index 0 r
0 exch r
neg 0 r
cl
} bind def
/clipbox {
box
clip
newpath
} bind def
%!PS-Adobe-3.0 Resource-Font
%%Title: DejaVu Sans
%%Copyright: Copyright (c) 2003 by Bitstream, Inc. All Rights Reserved. Copyright (c) 2006 by Tavmjong Bah. All Rights Reserved. DejaVu changes are in public domain 
%%Creator: Converted from TrueType to type 3 by PPR
25 dict begin
/_d{bind def}bind def
/_m{moveto}_d
/_l{lineto}_d
/_cl{closepath eofill}_d
/_c{curveto}_d
/_sc{7 -1 roll{setcachedevice}{pop pop pop pop pop pop}ifelse}_d
/_e{exec}_d
/FontName /DejaVuSans def
/PaintType 0 def
/FontMatrix[.001 0 0 .001 0 0]def
/FontBBox[-1021 -463 1793 1232]def
/FontType 3 def
/Encoding [ /space /zero /one /two /three /four /five /six /seven /E /M /R /S /a /c /e /i /n /o /r /s /t /u ] def
/FontInfo 10 dict dup begin
/FamilyName (DejaVu Sans) def
/FullName (DejaVu Sans) def
/Notice (Copyright (c) 2003 by Bitstream, Inc. All Rights Reserved. Copyright (c) 2006 by Tavmjong Bah. All Rights Reserved. DejaVu changes are in public domain ) def
/Weight (Book) def
/Version (Version 2.35) def
/ItalicAngle 0.0 def
/isFixedPitch false def
/UnderlinePosition -130 def
/UnderlineThickness 90 def
end readonly def
/CharStrings 24 dict dup begin
/.notdef 0 def
/space{318 0 0 0 0 0 _sc
}_d
/zero{636 0 66 -13 570 742 _sc
318 664 _m
267 664 229 639 203 589 _c
177 539 165 464 165 364 _c
165 264 177 189 203 139 _c
229 89 267 64 318 64 _c
369 64 407 89 433 139 _c
458 189 471 264 471 364 _c
471 464 458 539 433 589 _c
407 639 369 664 318 664 _c
318 742 _m
399 742 461 709 505 645 _c
548 580 570 486 570 364 _c
570 241 548 147 505 83 _c
461 19 399 -13 318 -13 _c
236 -13 173 19 130 83 _c
87 147 66 241 66 364 _c
66 486 87 580 130 645 _c
173 709 236 742 318 742 _c
_cl}_d
/one{636 0 110 0 544 729 _sc
124 83 _m
285 83 _l
285 639 _l
110 604 _l
110 694 _l
284 729 _l
383 729 _l
383 83 _l
544 83 _l
544 0 _l
124 0 _l
124 83 _l
_cl}_d
/two{{636 0 73 0 536 742 _sc
192 83 _m
536 83 _l
536 0 _l
73 0 _l
73 83 _l
110 121 161 173 226 239 _c
290 304 331 346 348 365 _c
380 400 402 430 414 455 _c
426 479 433 504 433 528 _c
433 566 419 598 392 622 _c
365 646 330 659 286 659 _c
255 659 222 653 188 643 _c
154 632 117 616 78 594 _c
78 694 _l
118 710 155 722 189 730 _c
223 738 255 742 284 742 _c
}_e{359 742 419 723 464 685 _c
509 647 532 597 532 534 _c
532 504 526 475 515 449 _c
504 422 484 390 454 354 _c
446 344 420 317 376 272 _c
332 227 271 164 192 83 _c
_cl}_e}_d
/three{{636 0 76 -13 556 742 _sc
406 393 _m
453 383 490 362 516 330 _c
542 298 556 258 556 212 _c
556 140 531 84 482 45 _c
432 6 362 -13 271 -13 _c
240 -13 208 -10 176 -4 _c
144 1 110 10 76 22 _c
76 117 _l
103 101 133 89 166 81 _c
198 73 232 69 268 69 _c
330 69 377 81 409 105 _c
441 129 458 165 458 212 _c
458 254 443 288 413 312 _c
383 336 341 349 287 349 _c
}_e{202 349 _l
202 430 _l
291 430 _l
339 430 376 439 402 459 _c
428 478 441 506 441 543 _c
441 580 427 609 401 629 _c
374 649 336 659 287 659 _c
260 659 231 656 200 650 _c
169 644 135 635 98 623 _c
98 711 _l
135 721 170 729 203 734 _c
235 739 266 742 296 742 _c
370 742 429 725 473 691 _c
517 657 539 611 539 553 _c
539 513 527 479 504 451 _c
481 423 448 403 406 393 _c
_cl}_e}_d
/four{636 0 49 0 580 729 _sc
378 643 _m
129 254 _l
378 254 _l
378 643 _l
352 729 _m
476 729 _l
476 254 _l
580 254 _l
580 172 _l
476 172 _l
476 0 _l
378 0 _l
378 172 _l
49 172 _l
49 267 _l
352 729 _l
_cl}_d
/five{{636 0 77 -13 549 729 _sc
108 729 _m
495 729 _l
495 646 _l
198 646 _l
198 467 _l
212 472 227 476 241 478 _c
255 480 270 482 284 482 _c
365 482 429 459 477 415 _c
525 370 549 310 549 234 _c
549 155 524 94 475 51 _c
426 8 357 -13 269 -13 _c
238 -13 207 -10 175 -6 _c
143 -1 111 6 77 17 _c
77 116 _l
106 100 136 88 168 80 _c
199 72 232 69 267 69 _c
}_e{323 69 368 83 401 113 _c
433 143 450 183 450 234 _c
450 284 433 324 401 354 _c
368 384 323 399 267 399 _c
241 399 214 396 188 390 _c
162 384 135 375 108 363 _c
108 729 _l
_cl}_e}_d
/six{{636 0 70 -13 573 742 _sc
330 404 _m
286 404 251 388 225 358 _c
199 328 186 286 186 234 _c
186 181 199 139 225 109 _c
251 79 286 64 330 64 _c
374 64 409 79 435 109 _c
461 139 474 181 474 234 _c
474 286 461 328 435 358 _c
409 388 374 404 330 404 _c
526 713 _m
526 623 _l
501 635 476 644 451 650 _c
425 656 400 659 376 659 _c
310 659 260 637 226 593 _c
}_e{192 549 172 482 168 394 _c
187 422 211 444 240 459 _c
269 474 301 482 336 482 _c
409 482 467 459 509 415 _c
551 371 573 310 573 234 _c
573 159 550 99 506 54 _c
462 9 403 -13 330 -13 _c
246 -13 181 19 137 83 _c
92 147 70 241 70 364 _c
70 479 97 571 152 639 _c
206 707 280 742 372 742 _c
396 742 421 739 447 735 _c
472 730 498 723 526 713 _c
_cl}_e}_d
/seven{636 0 82 0 551 729 _sc
82 729 _m
551 729 _l
551 687 _l
286 0 _l
183 0 _l
432 646 _l
82 646 _l
82 729 _l
_cl}_d
/E{632 0 98 0 568 729 _sc
98 729 _m
559 729 _l
559 646 _l
197 646 _l
197 430 _l
544 430 _l
544 347 _l
197 347 _l
197 83 _l
568 83 _l
568 0 _l
98 0 _l
98 729 _l
_cl}_d
/M{863 0 98 0 765 729 _sc
98 729 _m
245 729 _l
431 233 _l
618 729 _l
765 729 _l
765 0 _l
669 0 _l
669 640 _l
481 140 _l
382 140 _l
194 640 _l
194 0 _l
98 0 _l
98 729 _l
_cl}_d
/R{{695 0 98 0 666 729 _sc
444 342 _m
465 334 486 319 506 296 _c
526 272 546 240 566 199 _c
666 0 _l
560 0 _l
467 187 _l
443 235 419 268 397 284 _c
374 300 343 308 304 308 _c
197 308 _l
197 0 _l
98 0 _l
98 729 _l
321 729 _l
404 729 466 711 507 677 _c
548 642 569 589 569 519 _c
569 473 558 434 537 404 _c
515 374 484 353 444 342 _c
197 648 _m
197 389 _l
321 389 _l
}_e{368 389 404 400 428 422 _c
452 444 465 476 465 519 _c
465 561 452 593 428 615 _c
404 637 368 648 321 648 _c
197 648 _l
_cl}_e}_d
/S{{635 0 66 -13 579 742 _sc
535 705 _m
535 609 _l
497 627 462 640 429 649 _c
395 657 363 662 333 662 _c
279 662 237 651 208 631 _c
179 610 165 580 165 542 _c
165 510 174 485 194 469 _c
213 452 250 439 304 429 _c
364 417 _l
437 403 491 378 526 343 _c
561 307 579 260 579 201 _c
579 130 555 77 508 41 _c
460 5 391 -13 300 -13 _c
265 -13 228 -9 189 -2 _c
}_e{150 5 110 16 69 32 _c
69 134 _l
109 111 148 94 186 83 _c
224 71 262 66 300 66 _c
356 66 399 77 430 99 _c
460 121 476 152 476 194 _c
476 230 465 258 443 278 _c
421 298 385 313 335 323 _c
275 335 _l
201 349 148 372 115 404 _c
82 435 66 478 66 534 _c
66 598 88 649 134 686 _c
179 723 242 742 322 742 _c
356 742 390 739 426 733 _c
461 727 497 717 535 705 _c
}_e{_cl}_e}_d
/a{{613 0 60 -13 522 560 _sc
343 275 _m
270 275 220 266 192 250 _c
164 233 150 205 150 165 _c
150 133 160 107 181 89 _c
202 70 231 61 267 61 _c
317 61 357 78 387 114 _c
417 149 432 196 432 255 _c
432 275 _l
343 275 _l
522 312 _m
522 0 _l
432 0 _l
432 83 _l
411 49 385 25 355 10 _c
325 -5 287 -13 243 -13 _c
187 -13 142 2 109 33 _c
76 64 60 106 60 159 _c
}_e{60 220 80 266 122 298 _c
163 329 224 345 306 345 _c
432 345 _l
432 354 _l
432 395 418 427 391 450 _c
364 472 326 484 277 484 _c
245 484 215 480 185 472 _c
155 464 127 453 100 439 _c
100 522 _l
132 534 164 544 195 550 _c
226 556 256 560 286 560 _c
365 560 424 539 463 498 _c
502 457 522 395 522 312 _c
_cl}_e}_d
/c{{550 0 55 -13 488 560 _sc
488 526 _m
488 442 _l
462 456 437 466 411 473 _c
385 480 360 484 334 484 _c
276 484 230 465 198 428 _c
166 391 150 339 150 273 _c
150 206 166 154 198 117 _c
230 80 276 62 334 62 _c
360 62 385 65 411 72 _c
437 79 462 90 488 104 _c
488 21 _l
462 9 436 0 410 -5 _c
383 -10 354 -13 324 -13 _c
242 -13 176 12 128 64 _c
}_e{79 115 55 185 55 273 _c
55 362 79 432 128 483 _c
177 534 244 560 330 560 _c
358 560 385 557 411 551 _c
437 545 463 537 488 526 _c
_cl}_e}_d
/e{{615 0 55 -13 562 560 _sc
562 296 _m
562 252 _l
149 252 _l
153 190 171 142 205 110 _c
238 78 284 62 344 62 _c
378 62 412 66 444 74 _c
476 82 509 95 541 113 _c
541 28 _l
509 14 476 3 442 -3 _c
408 -9 373 -13 339 -13 _c
251 -13 182 12 131 62 _c
80 112 55 181 55 268 _c
55 357 79 428 127 481 _c
175 533 241 560 323 560 _c
397 560 455 536 498 489 _c
}_e{540 441 562 377 562 296 _c
472 322 _m
471 371 457 410 431 440 _c
404 469 368 484 324 484 _c
274 484 234 469 204 441 _c
174 413 156 373 152 322 _c
472 322 _l
_cl}_e}_d
/i{278 0 94 0 184 760 _sc
94 547 _m
184 547 _l
184 0 _l
94 0 _l
94 547 _l
94 760 _m
184 760 _l
184 646 _l
94 646 _l
94 760 _l
_cl}_d
/n{634 0 91 0 549 560 _sc
549 330 _m
549 0 _l
459 0 _l
459 327 _l
459 379 448 417 428 443 _c
408 469 378 482 338 482 _c
289 482 251 466 223 435 _c
195 404 181 362 181 309 _c
181 0 _l
91 0 _l
91 547 _l
181 547 _l
181 462 _l
202 494 227 519 257 535 _c
286 551 320 560 358 560 _c
420 560 468 540 500 501 _c
532 462 549 405 549 330 _c
_cl}_d
/o{612 0 55 -13 557 560 _sc
306 484 _m
258 484 220 465 192 427 _c
164 389 150 338 150 273 _c
150 207 163 156 191 118 _c
219 80 257 62 306 62 _c
354 62 392 80 420 118 _c
448 156 462 207 462 273 _c
462 337 448 389 420 427 _c
392 465 354 484 306 484 _c
306 560 _m
384 560 445 534 490 484 _c
534 433 557 363 557 273 _c
557 183 534 113 490 63 _c
445 12 384 -13 306 -13 _c
227 -13 165 12 121 63 _c
77 113 55 183 55 273 _c
55 363 77 433 121 484 _c
165 534 227 560 306 560 _c
_cl}_d
/r{411 0 91 0 411 560 _sc
411 463 _m
401 469 390 473 378 476 _c
366 478 353 480 339 480 _c
288 480 249 463 222 430 _c
194 397 181 350 181 288 _c
181 0 _l
91 0 _l
91 547 _l
181 547 _l
181 462 _l
199 495 224 520 254 536 _c
284 552 321 560 365 560 _c
371 560 378 559 386 559 _c
393 558 401 557 411 555 _c
411 463 _l
_cl}_d
/s{{521 0 54 -13 472 560 _sc
443 531 _m
443 446 _l
417 458 391 468 364 475 _c
336 481 308 485 279 485 _c
234 485 200 478 178 464 _c
156 450 145 430 145 403 _c
145 382 153 366 169 354 _c
185 342 217 330 265 320 _c
296 313 _l
360 299 405 279 432 255 _c
458 230 472 195 472 151 _c
472 100 452 60 412 31 _c
372 1 316 -13 246 -13 _c
216 -13 186 -10 154 -5 _c
}_e{122 0 89 8 54 20 _c
54 113 _l
87 95 120 82 152 74 _c
184 65 216 61 248 61 _c
290 61 323 68 346 82 _c
368 96 380 117 380 144 _c
380 168 371 187 355 200 _c
339 213 303 226 247 238 _c
216 245 _l
160 257 119 275 95 299 _c
70 323 58 356 58 399 _c
58 450 76 490 112 518 _c
148 546 200 560 268 560 _c
301 560 332 557 362 552 _c
391 547 418 540 443 531 _c
}_e{_cl}_e}_d
/t{392 0 27 0 368 702 _sc
183 702 _m
183 547 _l
368 547 _l
368 477 _l
183 477 _l
183 180 _l
183 135 189 106 201 94 _c
213 81 238 75 276 75 _c
368 75 _l
368 0 _l
276 0 _l
206 0 158 13 132 39 _c
106 65 93 112 93 180 _c
93 477 _l
27 477 _l
27 547 _l
93 547 _l
93 702 _l
183 702 _l
_cl}_d
/u{634 0 85 -13 543 560 _sc
85 216 _m
85 547 _l
175 547 _l
175 219 _l
175 167 185 129 205 103 _c
225 77 255 64 296 64 _c
344 64 383 79 411 110 _c
439 141 453 183 453 237 _c
453 547 _l
543 547 _l
543 0 _l
453 0 _l
453 84 _l
431 50 405 26 377 10 _c
348 -5 315 -13 277 -13 _c
214 -13 166 6 134 45 _c
101 83 85 140 85 216 _c
311 560 _m
311 560 _l
_cl}_d
end readonly def

/BuildGlyph
 {exch begin
 CharStrings exch
 2 copy known not{pop /.notdef}if
 true 3 1 roll get exec
 end}_d

/BuildChar {
 1 index /Encoding get exch get
 1 index /BuildGlyph get exec
}_d

FontName currentdict end definefont pop
end
%%EndProlog
mpldict begin
75.6 223.2 translate
460.8 345.6 0 0 clipbox
gsave
0 0 m
460.8 0 l
460.8 345.6 l
0 345.6 l
cl
1.000 setgray
fill
grestore
gsave
83.99 50.6 m
438.925799 50.6 l
438.925799 334.8 l
83.99 334.8 l
cl
1.000 setgray
fill
grestore
0.800 setlinewidth
1 setlinejoin
0 setlinecap
[] 0 setdash
0.000 setgray
gsave
/o {
gsave
newpath
translate
0.8 setlinewidth
1 setlinejoin
0 setlinecap
0 0 m
0 -3.5 l

gsave
0.000 setgray
fill
grestore
stroke
grestore
} bind def
100.123 50.6 o
grestore
/DejaVuSans findfont
15.000 scalefont
setfont
gsave
95.350008 32.209375 translate
0.000000 rotate
0.000000 0.000000 m /zero glyphshow
grestore
gsave
/o {
gsave
newpath
translate
0.8 setlinewidth
1 setlinejoin
0 setlinecap
0 0 m
0 -3.5 l

gsave
0.000 setgray
fill
grestore
stroke
grestore
} bind def
147.387 50.6 o
grestore
gsave
128.293341 32.209375 translate
0.000000 rotate
0.000000 0.000000 m /one glyphshow
9.543457 0.000000 m /zero glyphshow
19.086914 0.000000 m /zero glyphshow
28.630371 0.000000 m /zero glyphshow
grestore
gsave
/o {
gsave
newpath
translate
0.8 setlinewidth
1 setlinejoin
0 setlinecap
0 0 m
0 -3.5 l

gsave
0.000 setgray
fill
grestore
stroke
grestore
} bind def
194.651 50.6 o
grestore
gsave
175.556987 32.209375 translate
0.000000 rotate
0.000000 0.000000 m /two glyphshow
9.543457 0.000000 m /zero glyphshow
19.086914 0.000000 m /zero glyphshow
28.630371 0.000000 m /zero glyphshow
grestore
gsave
/o {
gsave
newpath
translate
0.8 setlinewidth
1 setlinejoin
0 setlinecap
0 0 m
0 -3.5 l

gsave
0.000 setgray
fill
grestore
stroke
grestore
} bind def
241.914 50.6 o
grestore
gsave
222.820632 32.209375 translate
0.000000 rotate
0.000000 0.000000 m /three glyphshow
9.543457 0.000000 m /zero glyphshow
19.086914 0.000000 m /zero glyphshow
28.630371 0.000000 m /zero glyphshow
grestore
gsave
/o {
gsave
newpath
translate
0.8 setlinewidth
1 setlinejoin
0 setlinecap
0 0 m
0 -3.5 l

gsave
0.000 setgray
fill
grestore
stroke
grestore
} bind def
289.178 50.6 o
grestore
gsave
270.084278 32.209375 translate
0.000000 rotate
0.000000 0.000000 m /four glyphshow
9.543457 0.000000 m /zero glyphshow
19.086914 0.000000 m /zero glyphshow
28.630371 0.000000 m /zero glyphshow
grestore
gsave
/o {
gsave
newpath
translate
0.8 setlinewidth
1 setlinejoin
0 setlinecap
0 0 m
0 -3.5 l

gsave
0.000 setgray
fill
grestore
stroke
grestore
} bind def
336.442 50.6 o
grestore
gsave
317.347923 32.209375 translate
0.000000 rotate
0.000000 0.000000 m /five glyphshow
9.543457 0.000000 m /zero glyphshow
19.086914 0.000000 m /zero glyphshow
28.630371 0.000000 m /zero glyphshow
grestore
gsave
/o {
gsave
newpath
translate
0.8 setlinewidth
1 setlinejoin
0 setlinecap
0 0 m
0 -3.5 l

gsave
0.000 setgray
fill
grestore
stroke
grestore
} bind def
383.705 50.6 o
grestore
gsave
364.611569 32.209375 translate
0.000000 rotate
0.000000 0.000000 m /six glyphshow
9.543457 0.000000 m /zero glyphshow
19.086914 0.000000 m /zero glyphshow
28.630371 0.000000 m /zero glyphshow
grestore
gsave
/o {
gsave
newpath
translate
0.8 setlinewidth
1 setlinejoin
0 setlinecap
0 0 m
0 -3.5 l

gsave
0.000 setgray
fill
grestore
stroke
grestore
} bind def
430.969 50.6 o
grestore
gsave
411.875215 32.209375 translate
0.000000 rotate
0.000000 0.000000 m /seven glyphshow
9.543457 0.000000 m /zero glyphshow
19.086914 0.000000 m /zero glyphshow
28.630371 0.000000 m /zero glyphshow
grestore
gsave
229.770400 13.693750 translate
0.000000 rotate
0.000000 0.000000 m /i glyphshow
4.167480 0.000000 m /t glyphshow
10.048828 0.000000 m /e glyphshow
19.277344 0.000000 m /r glyphshow
25.444336 0.000000 m /a glyphshow
34.636230 0.000000 m /t glyphshow
40.517578 0.000000 m /i glyphshow
44.685059 0.000000 m /o glyphshow
53.862305 0.000000 m /n glyphshow
grestore
gsave
/o {
gsave
newpath
translate
0.8 setlinewidth
1 setlinejoin
0 setlinecap
0 0 m
-3.5 0 l

gsave
0.000 setgray
fill
grestore
stroke
grestore
} bind def
83.99 87.0768 o
grestore
gsave
29.255625 81.381468 translate
0.000000 rotate
0.000000 0.000000 m /four glyphshow
9.543457 0.000000 m /zero glyphshow
19.086914 0.000000 m /zero glyphshow
28.630371 0.000000 m /zero glyphshow
38.173828 0.000000 m /zero glyphshow
grestore
gsave
/o {
gsave
newpath
translate
0.8 setlinewidth
1 setlinejoin
0 setlinecap
0 0 m
-3.5 0 l

gsave
0.000 setgray
fill
grestore
stroke
grestore
} bind def
83.99 143.902 o
grestore
gsave
29.255625 138.206730 translate
0.000000 rotate
0.000000 0.000000 m /four glyphshow
9.543457 0.000000 m /five glyphshow
19.086914 0.000000 m /zero glyphshow
28.630371 0.000000 m /zero glyphshow
38.173828 0.000000 m /zero glyphshow
grestore
gsave
/o {
gsave
newpath
translate
0.8 setlinewidth
1 setlinejoin
0 setlinecap
0 0 m
-3.5 0 l

gsave
0.000 setgray
fill
grestore
stroke
grestore
} bind def
83.99 200.727 o
grestore
gsave
29.255625 195.031992 translate
0.000000 rotate
0.000000 0.000000 m /five glyphshow
9.543457 0.000000 m /zero glyphshow
19.086914 0.000000 m /zero glyphshow
28.630371 0.000000 m /zero glyphshow
38.173828 0.000000 m /zero glyphshow
grestore
gsave
/o {
gsave
newpath
translate
0.8 setlinewidth
1 setlinejoin
0 setlinecap
0 0 m
-3.5 0 l

gsave
0.000 setgray
fill
grestore
stroke
grestore
} bind def
83.99 257.553 o
grestore
gsave
29.255625 251.857254 translate
0.000000 rotate
0.000000 0.000000 m /five glyphshow
9.543457 0.000000 m /five glyphshow
19.086914 0.000000 m /zero glyphshow
28.630371 0.000000 m /zero glyphshow
38.173828 0.000000 m /zero glyphshow
grestore
gsave
/o {
gsave
newpath
translate
0.8 setlinewidth
1 setlinejoin
0 setlinecap
0 0 m
-3.5 0 l

gsave
0.000 setgray
fill
grestore
stroke
grestore
} bind def
83.99 314.378 o
grestore
gsave
29.255625 308.682515 translate
0.000000 rotate
0.000000 0.000000 m /six glyphshow
9.543457 0.000000 m /zero glyphshow
19.086914 0.000000 m /zero glyphshow
28.630371 0.000000 m /zero glyphshow
38.173828 0.000000 m /zero glyphshow
grestore
gsave
22.130625 171.520312 translate
90.000000 rotate
0.000000 0.000000 m /R glyphshow
10.422363 0.000000 m /M glyphshow
23.364258 0.000000 m /S glyphshow
32.885742 0.000000 m /E glyphshow
grestore
1.500 setlinewidth
2 setlinecap
0.000 0.000 1.000 setrgbcolor
gsave
354.9 284.2 83.99 50.6 clipbox
100.123445 321.881818 m
100.3125 309.561011 l
100.454291 301.926228 l
100.501555 301.744237 l
100.879664 287.393745 l
100.926927 287.354925 l
101.068718 285.677984 l
101.163246 285.267785 l
101.257773 283.514884 l
101.399564 281.554986 l
101.588618 281.034128 l
101.777673 280.522047 l
101.966728 273.347684 l
102.013991 273.233025 l
102.155782 272.132775 l
102.628419 270.472497 l
102.722946 270.425281 l
102.959264 268.416714 l
103.006528 268.387745 l
103.148319 267.558039 l
103.29011 266.747342 l
103.384637 266.488698 l
103.526428 266.098625 l
103.573692 266.055544 l
103.762746 265.474274 l
103.951801 265.224926 l
104.140855 264.591764 l
104.471701 263.792929 l
104.613492 263.284804 l
104.84981 262.708508 l
104.944337 262.576289 l
105.36971 261.877838 l
105.936874 259.927662 l
106.031401 259.895494 l
106.40951 258.668968 l
106.598565 258.410791 l
106.787619 258.162106 l
106.92941 258.07655 l
107.402047 256.618471 l
107.496574 256.481609 l
107.638365 255.601918 l
107.685629 255.583951 l
107.82742 255.144445 l
108.158265 254.823757 l
108.252792 254.785245 l
108.725429 253.684574 l
109.150802 253.321759 l
109.292593 253.009707 l
109.339856 252.966154 l
109.528911 252.265036 l
109.765229 251.808725 l
109.90702 251.059114 l
110.001547 251.01296 l
110.143338 250.57052 l
110.332393 250.396054 l
110.42692 250.175226 l
110.663238 248.069069 l
110.757766 247.804588 l
110.899557 247.502979 l
111.277666 247.000418 l
111.46672 246.589755 l
111.513984 246.545382 l
111.703039 246.009523 l
111.84483 245.876775 l
112.033884 245.270153 l
112.175675 244.81062 l
112.270202 244.685323 l
112.459257 244.369605 l
112.648312 244.164573 l
112.88463 243.378998 l
113.026421 243.195227 l
113.168212 242.758161 l
113.215475 242.682177 l
113.40453 242.077748 l
113.546321 241.989666 l
113.971694 241.118328 l
114.113485 240.679357 l
114.302539 240.34753 l
114.349803 240.318056 l
114.633385 239.451735 l
114.727912 239.30219 l
114.869703 238.993886 l
114.96423 238.872751 l
115.058757 238.372622 l
115.247812 237.931535 l
115.295076 237.906752 l
115.48413 237.466132 l
117.42194 233.958106 l
117.610994 233.755572 l
117.94184 233.056924 l
118.083631 232.87726 l
118.178158 232.741985 l
118.319949 232.096127 l
118.556267 231.895492 l
118.745322 231.639041 l
118.98164 231.103833 l
119.123431 231.050089 l
119.454276 229.616666 l
119.690595 229.252553 l
120.446813 226.904378 l
120.588604 226.148759 l
120.730395 226.005319 l
120.824922 225.946927 l
120.966713 225.409283 l
121.06124 225.341801 l
121.203031 224.560584 l
121.392086 224.341473 l
121.533877 223.685731 l
122.101041 222.907102 l
122.242832 222.325582 l
122.384623 222.107274 l
122.573677 221.872398 l
122.809995 221.661983 l
123.093577 221.248884 l
123.613477 219.828929 l
123.708005 219.751963 l
123.849796 218.914771 l
124.086114 218.790377 l
124.416959 217.789438 l
124.55875 217.107379 l
124.795068 216.940343 l
124.984123 216.587844 l
125.834869 215.553246 l
125.97666 215.3963 l
126.023923 215.346628 l
126.165714 214.861061 l
126.449296 214.672591 l
126.591087 214.258697 l
126.921932 213.951396 l
126.969196 213.913991 l
127.158251 213.321763 l
127.347305 213.158034 l
127.53636 212.898967 l
127.725414 212.774563 l
127.819942 212.641654 l
127.867205 212.454574 l
128.008996 211.534721 l
128.103524 211.425628 l
128.245315 210.991962 l
128.57616 210.542778 l
128.670687 210.445459 l
128.812478 209.807502 l
128.859742 209.779329 l
129.001533 209.449322 l
129.048797 209.437179 l
129.237851 209.070508 l
129.285115 209.04352 l
129.474169 208.442524 l
129.710488 208.227325 l
130.041333 207.127104 l
130.183124 207.049496 l
130.466706 206.318168 l
130.797551 205.990339 l
130.986606 205.602664 l
131.317452 205.12198 l
131.459242 204.758005 l
131.648297 203.217951 l
131.884615 202.971968 l
132.026406 202.646555 l
132.309988 202.347135 l
132.451779 202.154437 l
132.59357 201.20811 l
132.735361 201.051868 l
134.720434 198.267899 l
134.862225 197.671887 l
134.956752 197.482088 l
135.19307 195.53835 l
135.712971 195.050598 l
135.807498 195.011116 l
135.996552 194.67257 l
136.185607 194.507012 l
136.327398 193.444883 l
136.374662 193.436891 l
136.563716 193.132848 l
136.705507 193.064531 l
136.894562 192.554082 l
137.036353 192.42188 l
137.319935 192.206465 l
137.461725 191.543476 l
137.745307 191.241217 l
137.934362 191.031989 l
137.981626 191.010285 l
138.123416 189.516719 l
138.406998 189.314328 l
139.21048 188.312903 l
139.446799 188.11005 l
139.635853 187.981029 l
139.777644 187.806502 l
140.10849 187.402365 l
140.250281 186.683023 l
140.392071 186.596544 l
140.722917 186.113472 l
141.053763 185.752901 l
141.14829 185.704322 l
141.290081 185.198346 l
141.526399 184.930433 l
141.66819 184.290626 l
141.857245 184.163992 l
141.999035 183.348839 l
142.140826 183.21978 l
142.282617 183.021456 l
142.329881 183.00607 l
142.518936 182.669864 l
142.755254 182.45599 l
143.275154 182.128007 l
143.700527 181.507837 l
143.842318 181.37293 l
144.220427 180.815937 l
144.314954 180.756104 l
144.504009 178.775353 l
144.598536 178.752221 l
145.071172 177.307339 l
145.402018 177.059197 l
145.638336 176.462521 l
146.016445 176.156314 l
146.158236 175.43751 l
146.583609 175.126223 l
146.772664 174.842097 l
146.819927 174.830285 l
146.961718 174.210585 l
147.103509 174.149081 l
147.2453 173.672343 l
147.576146 173.493159 l
147.717937 173.383491 l
147.859727 172.73593 l
147.906991 172.710594 l
148.332364 171.384777 l
148.568682 171.22864 l
148.710473 171.109323 l
148.852264 170.410658 l
149.608482 169.586258 l
149.844801 169.30949 l
150.175646 169.134622 l
150.22291 169.031724 l
150.364701 168.435023 l
151.404501 167.381439 l
151.546292 166.674766 l
152.82241 165.538593 l
153.105992 165.349565 l
153.578629 165.147514 l
153.72042 164.767647 l
153.956738 164.518119 l
154.193056 164.357405 l
154.334847 163.608448 l
154.476638 163.529976 l
154.571165 163.3686 l
154.712956 162.53843 l
154.807483 162.406559 l
154.949274 161.591552 l
155.091065 161.534008 l
155.658229 160.534018 l
155.941811 160.395955 l
156.036338 160.248816 l
156.178129 158.928923 l
156.508975 158.656051 l
156.650766 158.584847 l
156.792557 157.73966 l
157.028875 157.521531 l
157.076138 157.495023 l
157.217929 156.588106 l
158.39952 155.483558 l
159.203002 155.056859 l
159.628375 154.631783 l
159.864693 154.454836 l
160.053748 154.313083 l
160.101012 154.283182 l
160.290066 153.868604 l
160.85723 153.648177 l
162.322403 152.877137 l
162.511458 152.680733 l
163.125885 152.502975 l
163.551258 152.179557 l
163.693049 151.957744 l
163.976631 151.820547 l
164.35474 151.443251 l
164.402003 151.417183 l
164.543794 150.534581 l
165.252749 150.225384 l
165.39454 150.192222 l
165.725386 149.546542 l
166.103495 149.247192 l
166.623395 149.012561 l
166.906977 148.830746 l
167.190559 148.719904 l
167.521404 148.610639 l
167.663195 147.099068 l
167.804986 146.996151 l
168.135831 146.56104 l
168.561204 146.350344 l
168.750259 146.184949 l
168.89205 146.07631 l
169.601004 145.623297 l
169.93185 145.440932 l
170.120905 145.298525 l
170.45175 145.156282 l
170.546277 145.126754 l
170.688068 144.920142 l
170.877123 144.870395 l
171.018914 144.440356 l
171.397023 144.206245 l
171.538814 143.303241 l
172.105978 143.066155 l
172.38956 142.772569 l
172.720405 142.666719 l
172.90946 142.382661 l
173.42936 142.15271 l
173.854733 142.010747 l
174.185578 141.905261 l
174.374633 141.685868 l
174.563687 141.545878 l
174.847269 141.379365 l
175.225378 141.223371 l
175.367169 141.062774 l
176.454233 140.710127 l
176.832342 139.676026 l
176.974133 139.615007 l
177.163188 139.491564 l
177.824879 139.163748 l
178.202988 138.954545 l
178.344779 138.908827 l
178.533833 138.610294 l
179.242788 138.329505 l
179.479106 138.180929 l
179.668161 138.054397 l
179.857216 137.90483 l
180.188061 137.72706 l
180.518907 137.625717 l
180.849752 137.432982 l
180.944279 137.389826 l
181.133334 137.082883 l
181.369652 136.882193 l
181.511443 136.265513 l
181.936816 136.167052 l
182.125871 136.132218 l
182.267661 135.480949 l
182.740298 135.25889 l
183.118407 135.183641 l
183.212934 135.012706 l
183.354725 133.951641 l
183.685571 133.855969 l
184.016416 133.750519 l
184.252735 133.643064 l
184.772635 133.448762 l
184.914426 132.981779 l
185.245271 132.887116 l
185.576117 132.710748 l
186.00149 132.54495 l
186.14328 131.877896 l
186.899499 131.504088 l
187.372135 131.226049 l
187.56119 130.83491 l
187.892035 130.703781 l
188.033826 130.201196 l
188.695517 129.847311 l
189.073626 129.764222 l
189.215417 129.350516 l
189.309945 129.281224 l
189.498999 129.199132 l
189.593527 129.082192 l
189.782581 128.897968 l
190.018899 128.830853 l
190.16069 128.679661 l
190.207954 128.660595 l
190.349745 128.205916 l
190.822381 127.58641 l
191.105963 127.502074 l
191.247754 127.252669 l
191.767654 127.137508 l
192.051236 126.786939 l
192.0985 126.785717 l
192.240291 126.564684 l
192.665664 126.309477 l
192.949245 126.249157 l
193.091036 125.554478 l
193.374618 125.379583 l
193.563673 125.279029 l
193.847255 125.155231 l
194.130837 124.841315 l
194.1781 124.822543 l
194.319891 124.451875 l
194.414418 124.397622 l
194.556209 124.121395 l
194.603473 124.119086 l
194.745264 123.394883 l
195.123373 123.156775 l
195.265164 122.276535 l
195.926855 121.651736 l
196.304964 121.540179 l
197.533819 121.07413 l
198.290037 120.961201 l
199.424365 120.400402 l
199.471628 120.393796 l
199.613419 120.164084 l
199.897001 120.086837 l
200.038792 119.847817 l
200.322374 119.736573 l
200.511429 119.603786 l
200.747747 119.46228 l
201.220383 119.21354 l
201.551229 119.11867 l
201.740283 119.000524 l
202.118393 118.871753 l
202.307447 118.739129 l
203.299984 118.490365 l
203.819884 118.298018 l
204.197993 118.18177 l
204.339784 117.978832 l
204.717893 117.876619 l
204.81242 117.859095 l
204.954211 117.607545 l
205.001475 117.594991 l
205.143266 117.25524 l
205.71043 117.108566 l
205.852221 116.658233 l
206.561175 116.43046 l
206.986548 116.25876 l
207.364657 116.071209 l
207.884557 115.930546 l
208.451721 115.792264 l
209.775103 115.433627 l
209.916894 114.890047 l
211.098485 114.530943 l
211.382067 114.450535 l
211.523858 113.505481 l
211.80744 113.389683 l
212.138286 113.170364 l
212.374604 113.058617 l
212.563658 112.892406 l
212.752713 112.762443 l
213.130822 112.699532 l
213.272613 112.687927 l
213.461668 111.588799 l
214.123359 111.495632 l
214.501468 111.373117 l
215.352213 111.260362 l
215.494004 111.032926 l
216.250223 110.926841 l
216.675596 110.688218 l
216.817386 110.640432 l
216.959177 109.924586 l
217.006441 109.919267 l
217.195496 109.410293 l
217.998978 109.26393 l
218.755196 109.010452 l
218.94425 108.896446 l
219.700469 108.757505 l
220.740269 108.573055 l
220.88206 108.337635 l
221.354696 108.256721 l
221.496487 107.129536 l
222.063651 107.02807 l
222.205442 106.883721 l
222.252706 106.874274 l
222.394497 106.686208 l
222.583551 106.655446 l
222.630815 106.539592 l
222.772606 105.693621 l
222.96166 105.634448 l
223.103451 105.003228 l
223.197979 104.985785 l
223.33977 104.795315 l
223.434297 104.763721 l
223.576088 104.613664 l
223.906933 104.527835 l
224.095988 104.395818 l
224.285042 104.340025 l
225.277579 104.185739 l
225.466634 104.04017 l
225.702952 103.979484 l
226.742752 103.739773 l
227.026334 103.660606 l
227.262652 103.415652 l
227.688025 103.296364 l
227.924343 103.037576 l
228.066134 102.671169 l
228.39698 102.581022 l
229.153198 102.437646 l
229.294989 102.303396 l
229.531307 102.254353 l
229.673098 101.857747 l
230.003944 101.661014 l
230.145735 100.695751 l
230.665635 100.57998 l
230.760162 100.489533 l
231.043744 100.374177 l
232.03628 100.170092 l
232.367126 100.016219 l
233.265135 99.898721 l
233.879563 99.841821 l
234.021353 99.087338 l
234.49399 99.003539 l
234.824835 98.857544 l
235.344736 98.73923 l
235.486526 98.649818 l
237.329809 98.342868 l
237.566127 98.298025 l
238.700454 98.184784 l
239.0313 98.128053 l
239.220354 98.105341 l
239.362145 97.956132 l
239.787518 97.842914 l
239.882045 97.83007 l
240.023836 96.71021 l
240.591 96.567427 l
241.252691 96.486114 l
241.441746 96.432552 l
241.583537 95.819912 l
242.245228 95.613989 l
242.387019 95.400796 l
242.434282 95.399497 l
242.576073 95.049797 l
243.190501 94.928817 l
243.852192 94.817261 l
248.720347 93.893124 l
248.862138 93.187247 l
249.382038 93.102137 l
249.523829 92.829313 l
250.138257 92.73754 l
250.70542 92.672363 l
252.12333 92.496614 l
252.454175 92.425896 l
253.16313 92.355892 l
253.304921 91.844178 l
253.493975 91.761527 l
253.872085 91.685792 l
254.013876 91.668933 l
254.061139 91.501924 l
254.20293 90.750583 l
254.297457 90.670563 l
254.439248 90.560128 l
255.479049 90.450226 l
255.857158 90.384246 l
257.227803 90.248931 l
258.031285 90.138326 l
258.551186 90.021385 l
259.023822 89.960965 l
259.165613 89.631896 l
259.26014 89.622766 l
259.401931 89.439545 l
259.827304 89.334749 l
259.921831 89.326463 l
260.063622 88.516363 l
260.29994 88.48905 l
260.441731 88.074714 l
261.150686 87.929382 l
261.481532 87.881756 l
261.576059 87.882413 l
261.71785 86.821783 l
262.190486 86.760992 l
262.332277 86.572555 l
263.466605 86.396057 l
263.608396 86.289445 l
264.742723 86.114038 l
265.073569 86.070165 l
267.909387 85.89707 l
268.382024 85.87111 l
268.949188 85.788687 l
269.090978 85.588783 l
269.280033 85.526096 l
270.367097 85.356936 l
270.508888 85.197792 l
272.304906 85.056642 l
273.722816 84.738143 l
274.951671 84.638288 l
277.645698 84.401635 l
278.496444 84.298798 l
279.110871 84.187537 l
279.394453 84.171933 l
279.536244 84.040786 l
280.481517 83.904144 l
280.954154 83.834566 l
281.048681 83.832035 l
281.190472 83.665421 l
281.993954 83.54172 l
282.183008 83.489503 l
284.02629 83.342235 l
284.309872 83.296312 l
286.436736 83.0274 l
287.996437 82.816789 l
288.138228 82.673389 l
288.705391 82.57105 l
288.894446 82.500204 l
291.304892 82.291052 l
291.446683 82.11019 l
292.722801 82.053466 l
292.911856 81.996982 l
293.809865 81.885163 l
294.755138 81.595942 l
295.03872 81.536564 l
295.180511 81.31768 l
295.794938 81.296693 l
295.936729 80.583888 l
296.834738 80.539507 l
296.976529 79.605734 l
298.252648 79.473006 l
298.488966 79.416306 l
300.993939 79.220097 l
301.182994 79.174601 l
305.011349 78.821621 l
305.15314 78.64279 l
307.043686 78.496049 l
307.988959 78.362048 l
309.265077 78.248207 l
310.257614 77.996902 l
310.446668 77.36086 l
310.493932 77.355141 l
310.635723 77.189871 l
311.013832 77.129754 l
311.155623 76.92324 l
312.289951 76.716353 l
312.479005 76.567514 l
313.802387 76.477873 l
314.275024 76.38671 l
315.26756 76.294722 l
315.409351 76.147369 l
315.881988 76.10087 l
316.023779 75.936555 l
316.874524 75.874528 l
317.914324 75.75455 l
318.056115 75.571191 l
319.615816 75.461599 l
320.230243 75.391082 l
321.080989 75.306971 l
323.775016 75.060589 l
324.247653 74.988435 l
324.814817 74.886855 l
324.956608 74.762093 l
326.232726 74.553698 l
326.610835 74.502762 l
339.797392 73.189082 l
339.986447 73.12808 l
341.735202 72.956908 l
344.571021 72.685104 l
345.279975 72.618752 l
347.784948 72.493605 l
348.399376 72.422461 l
349.770022 72.252823 l
350.148131 72.226522 l
352.558577 72.070045 l
352.700368 71.99574 l
353.881959 71.882292 l
355.205341 71.730803 l
355.252604 71.729723 l
355.394395 71.544252 l
357.332205 71.388867 l
357.615787 71.319086 l
358.513796 71.278839 l
361.16056 71.164994 l
361.349615 71.120917 l
361.869515 71.033244 l
362.153097 71.006699 l
363.381951 70.900447 l
363.61827 70.856073 l
366.501352 70.684637 l
366.690407 70.613616 l
367.919261 70.517928 l
368.061052 70.327606 l
369.431698 70.200016 l
369.71528 70.131387 l
369.998862 70.024482 l
373.260053 69.638379 l
375.528708 69.520609 l
376.7103 69.424779 l
379.120745 69.245112 l
379.262536 69.180165 l
380.207809 69.10538 l
380.3496 68.972914 l
381.814773 68.78021 l
381.956564 67.787836 l
383.705319 67.69891 l
384.792383 67.624269 l
385.265019 67.616503 l
385.40681 67.500732 l
386.352083 67.384613 l
387.439147 67.341726 l
389.282429 67.253964 l
389.42422 67.030376 l
391.598348 66.911707 l
392.260039 66.812968 l
394.812276 66.695012 l
396.655558 66.602687 l
398.309786 66.463188 l
398.546104 66.43377 l
400.909286 66.165158 l
401.098341 66.122429 l
402.610777 66.006829 l
402.894359 65.965254 l
405.446596 65.812542 l
406.250078 65.741878 l
407.526196 65.680148 l
407.809778 65.516202 l
408.187888 65.4814 l
408.329678 65.325889 l
409.936642 65.229467 l
410.078433 65.101002 l
410.976443 64.990523 l
411.401815 64.949099 l
413.103307 64.871444 l
413.245098 64.77163 l
414.852062 64.625857 l
415.230171 64.597493 l
415.371962 63.955886 l
418.72768 63.731684 l
419.247581 63.703306 l
421.941608 63.570628 l
422.272454 63.542226 l
422.792354 63.518182 l
422.792354 63.518182 l
stroke
grestore
0.800 setlinewidth
0 setlinejoin
[] 0 setdash
0.000 setgray
gsave
83.99 50.6 m
83.99 334.8 l
stroke
grestore
gsave
438.925799 50.6 m
438.925799 334.8 l
stroke
grestore
gsave
83.99 50.6 m
438.925799 50.6 l
stroke
grestore
gsave
83.99 334.8 m
438.925799 334.8 l
stroke
grestore
1.000 setlinewidth
0 setlinecap
0.800 setgray
gsave
225.535174 300.784375 m
428.425799 300.784375 l
430.425799 300.784375 431.425799 301.784375 431.425799 303.784375 c
431.425799 324.3 l
431.425799 326.3 430.425799 327.3 428.425799 327.3 c
225.535174 327.3 l
223.535174 327.3 222.535174 326.3 222.535174 324.3 c
222.535174 303.784375 l
222.535174 301.784375 223.535174 300.784375 225.535174 300.784375 c
cl
gsave
1.000 setgray
fill
grestore
stroke
grestore
1.500 setlinewidth
1 setlinejoin
2 setlinecap
[] 0 setdash
0.000 0.000 1.000 setrgbcolor
gsave
228.535174 315.159375 m
258.535174 315.159375 l
stroke
grestore
0.000 setgray
gsave
270.535174 309.909375 translate
0.000000 rotate
0.000000 0.000000 m /R glyphshow
10.422363 0.000000 m /e glyphshow
19.650879 0.000000 m /c glyphshow
27.897949 0.000000 m /o glyphshow
37.075195 0.000000 m /n glyphshow
46.582031 0.000000 m /s glyphshow
54.396973 0.000000 m /t glyphshow
60.278320 0.000000 m /r glyphshow
66.445312 0.000000 m /u glyphshow
75.952148 0.000000 m /c glyphshow
84.199219 0.000000 m /t glyphshow
90.080566 0.000000 m /i glyphshow
94.248047 0.000000 m /o glyphshow
103.425293 0.000000 m /n glyphshow
112.932129 0.000000 m /space glyphshow
117.700195 0.000000 m /E glyphshow
127.177734 0.000000 m /r glyphshow
133.344727 0.000000 m /r glyphshow
139.511719 0.000000 m /o glyphshow
148.688965 0.000000 m /r glyphshow
grestore

end
showpage
